%00%00
%00%01
%00%02
%00%03
%00%04
%00%05
%00%06
%00%07
%00%08
%00%09
%00%0a
%00%0b
%00%0c
%00%0d
%00%0e
%00%0f
%00%10
%00%11
%00%12
%00%13
%00%14
%00%15
%00%16
%00%17
%00%18
%00%19
%00%1a
%00%1b
%00%1c
%00%1d
%00%1e
%00%1f
%01%00
%01%01
%01%02
%01%03
%01%04
%01%05
%01%06
%01%07
%01%08
%01%09
%01%0a
%01%0b
%01%0c
%01%0d
%01%0e
%01%0f
%01%10
%01%11
%01%12
%01%13
%01%14
%01%15
%01%16
%01%17
%01%18
%01%19
%01%1a
%01%1b
%01%1c
%01%1d
%01%1e
%01%1f
%02%00
%02%01
%02%02
%02%03
%02%04
%02%05
%02%06
%02%07
%02%08
%02%09
%02%0a
%02%0b
%02%0c
%02%0d
%02%0e
%02%0f
%02%10
%02%11
%02%12
%02%13
%02%14
%02%15
%02%16
%02%17
%02%18
%02%19
%02%1a
%02%1b
%02%1c
%02%1d
%02%1e
%02%1f
%03%00
%03%01
%03%02
%03%03
%03%04
%03%05
%03%06
%03%07
%03%08
%03%09
%03%0a
%03%0b
%03%0c
%03%0d
%03%0e
%03%0f
%03%10
%03%11
%03%12
%03%13
%03%14
%03%15
%03%16
%03%17
%03%18
%03%19
%03%1a
%03%1b
%03%1c
%03%1d
%03%1e
%03%1f
%04%00
%04%01
%04%02
%04%03
%04%04
%04%05
%04%06
%04%07
%04%08
%04%09
%04%0a
%04%0b
%04%0c
%04%0d
%04%0e
%04%0f
%04%10
%04%11
%04%12
%04%13
%04%14
%04%15
%04%16
%04%17
%04%18
%04%19
%04%1a
%04%1b
%04%1c
%04%1d
%04%1e
%04%1f
%05%00
%05%01
%05%02
%05%03
%05%04
%05%05
%05%06
%05%07
%05%08
%05%09
%05%0a
%05%0b
%05%0c
%05%0d
%05%0e
%05%0f
%05%10
%05%11
%05%12
%05%13
%05%14
%05%15
%05%16
%05%17
%05%18
%05%19
%05%1a
%05%1b
%05%1c
%05%1d
%05%1e
%05%1f
%06%00
%06%01
%06%02
%06%03
%06%04
%06%05
%06%06
%06%07
%06%08
%06%09
%06%0a
%06%0b
%06%0c
%06%0d
%06%0e
%06%0f
%06%10
%06%11
%06%12
%06%13
%06%14
%06%15
%06%16
%06%17
%06%18
%06%19
%06%1a
%06%1b
%06%1c
%06%1d
%06%1e
%06%1f
%07%00
%07%01
%07%02
%07%03
%07%04
%07%05
%07%06
%07%07
%07%08
%07%09
%07%0a
%07%0b
%07%0c
%07%0d
%07%0e
%07%0f
%07%10
%07%11
%07%12
%07%13
%07%14
%07%15
%07%16
%07%17
%07%18
%07%19
%07%1a
%07%1b
%07%1c
%07%1d
%07%1e
%07%1f
%08%00
%08%01
%08%02
%08%03
%08%04
%08%05
%08%06
%08%07
%08%08
%08%09
%08%0a
%08%0b
%08%0c
%08%0d
%08%0e
%08%0f
%08%10
%08%11
%08%12
%08%13
%08%14
%08%15
%08%16
%08%17
%08%18
%08%19
%08%1a
%08%1b
%08%1c
%08%1d
%08%1e
%08%1f
%09%00
%09%01
%09%02
%09%03
%09%04
%09%05
%09%06
%09%07
%09%08
%09%09
%09%0a
%09%0b
%09%0c
%09%0d
%09%0e
%09%0f
%09%10
%09%11
%09%12
%09%13
%09%14
%09%15
%09%16
%09%17
%09%18
%09%19
%09%1a
%09%1b
%09%1c
%09%1d
%09%1e
%09%1f
%0a%00
%0a%01
%0a%02
%0a%03
%0a%04
%0a%05
%0a%06
%0a%07
%0a%08
%0a%09
%0a%0a
%0a%0b
%0a%0c
%0a%0d
%0a%0e
%0a%0f
%0a%10
%0a%11
%0a%12
%0a%13
%0a%14
%0a%15
%0a%16
%0a%17
%0a%18
%0a%19
%0a%1a
%0a%1b
%0a%1c
%0a%1d
%0a%1e
%0a%1f
%0b%00
%0b%01
%0b%02
%0b%03
%0b%04
%0b%05
%0b%06
%0b%07
%0b%08
%0b%09
%0b%0a
%0b%0b
%0b%0c
%0b%0d
%0b%0e
%0b%0f
%0b%10
%0b%11
%0b%12
%0b%13
%0b%14
%0b%15
%0b%16
%0b%17
%0b%18
%0b%19
%0b%1a
%0b%1b
%0b%1c
%0b%1d
%0b%1e
%0b%1f
%0c%00
%0c%01
%0c%02
%0c%03
%0c%04
%0c%05
%0c%06
%0c%07
%0c%08
%0c%09
%0c%0a
%0c%0b
%0c%0c
%0c%0d
%0c%0e
%0c%0f
%0c%10
%0c%11
%0c%12
%0c%13
%0c%14
%0c%15
%0c%16
%0c%17
%0c%18
%0c%19
%0c%1a
%0c%1b
%0c%1c
%0c%1d
%0c%1e
%0c%1f
%0d%00
%0d%01
%0d%02
%0d%03
%0d%04
%0d%05
%0d%06
%0d%07
%0d%08
%0d%09
%0d%0a
%0d%0b
%0d%0c
%0d%0d
%0d%0e
%0d%0f
%0d%10
%0d%11
%0d%12
%0d%13
%0d%14
%0d%15
%0d%16
%0d%17
%0d%18
%0d%19
%0d%1a
%0d%1b
%0d%1c
%0d%1d
%0d%1e
%0d%1f
%0e%00
%0e%01
%0e%02
%0e%03
%0e%04
%0e%05
%0e%06
%0e%07
%0e%08
%0e%09
%0e%0a
%0e%0b
%0e%0c
%0e%0d
%0e%0e
%0e%0f
%0e%10
%0e%11
%0e%12
%0e%13
%0e%14
%0e%15
%0e%16
%0e%17
%0e%18
%0e%19
%0e%1a
%0e%1b
%0e%1c
%0e%1d
%0e%1e
%0e%1f
%0f%00
%0f%01
%0f%02
%0f%03
%0f%04
%0f%05
%0f%06
%0f%07
%0f%08
%0f%09
%0f%0a
%0f%0b
%0f%0c
%0f%0d
%0f%0e
%0f%0f
%0f%10
%0f%11
%0f%12
%0f%13
%0f%14
%0f%15
%0f%16
%0f%17
%0f%18
%0f%19
%0f%1a
%0f%1b
%0f%1c
%0f%1d
%0f%1e
%0f%1f
%10%00
%10%01
%10%02
%10%03
%10%04
%10%05
%10%06
%10%07
%10%08
%10%09
%10%0a
%10%0b
%10%0c
%10%0d
%10%0e
%10%0f
%10%10
%10%11
%10%12
%10%13
%10%14
%10%15
%10%16
%10%17
%10%18
%10%19
%10%1a
%10%1b
%10%1c
%10%1d
%10%1e
%10%1f
%11%00
%11%01
%11%02
%11%03
%11%04
%11%05
%11%06
%11%07
%11%08
%11%09
%11%0a
%11%0b
%11%0c
%11%0d
%11%0e
%11%0f
%11%10
%11%11
%11%12
%11%13
%11%14
%11%15
%11%16
%11%17
%11%18
%11%19
%11%1a
%11%1b
%11%1c
%11%1d
%11%1e
%11%1f
%12%00
%12%01
%12%02
%12%03
%12%04
%12%05
%12%06
%12%07
%12%08
%12%09
%12%0a
%12%0b
%12%0c
%12%0d
%12%0e
%12%0f
%12%10
%12%11
%12%12
%12%13
%12%14
%12%15
%12%16
%12%17
%12%18
%12%19
%12%1a
%12%1b
%12%1c
%12%1d
%12%1e
%12%1f
%13%00
%13%01
%13%02
%13%03
%13%04
%13%05
%13%06
%13%07
%13%08
%13%09
%13%0a
%13%0b
%13%0c
%13%0d
%13%0e
%13%0f
%13%10
%13%11
%13%12
%13%13
%13%14
%13%15
%13%16
%13%17
%13%18
%13%19
%13%1a
%13%1b
%13%1c
%13%1d
%13%1e
%13%1f
%14%00
%14%01
%14%02
%14%03
%14%04
%14%05
%14%06
%14%07
%14%08
%14%09
%14%0a
%14%0b
%14%0c
%14%0d
%14%0e
%14%0f
%14%10
%14%11
%14%12
%14%13
%14%14
%14%15
%14%16
%14%17
%14%18
%14%19
%14%1a
%14%1b
%14%1c
%14%1d
%14%1e
%14%1f
%15%00
%15%01
%15%02
%15%03
%15%04
%15%05
%15%06
%15%07
%15%08
%15%09
%15%0a
%15%0b
%15%0c
%15%0d
%15%0e
%15%0f
%15%10
%15%11
%15%12
%15%13
%15%14
%15%15
%15%16
%15%17
%15%18
%15%19
%15%1a
%15%1b
%15%1c
%15%1d
%15%1e
%15%1f
%16%00
%16%01
%16%02
%16%03
%16%04
%16%05
%16%06
%16%07
%16%08
%16%09
%16%0a
%16%0b
%16%0c
%16%0d
%16%0e
%16%0f
%16%10
%16%11
%16%12
%16%13
%16%14
%16%15
%16%16
%16%17
%16%18
%16%19
%16%1a
%16%1b
%16%1c
%16%1d
%16%1e
%16%1f
%17%00
%17%01
%17%02
%17%03
%17%04
%17%05
%17%06
%17%07
%17%08
%17%09
%17%0a
%17%0b
%17%0c
%17%0d
%17%0e
%17%0f
%17%10
%17%11
%17%12
%17%13
%17%14
%17%15
%17%16
%17%17
%17%18
%17%19
%17%1a
%17%1b
%17%1c
%17%1d
%17%1e
%17%1f
%18%00
%18%01
%18%02
%18%03
%18%04
%18%05
%18%06
%18%07
%18%08
%18%09
%18%0a
%18%0b
%18%0c
%18%0d
%18%0e
%18%0f
%18%10
%18%11
%18%12
%18%13
%18%14
%18%15
%18%16
%18%17
%18%18
%18%19
%18%1a
%18%1b
%18%1c
%18%1d
%18%1e
%18%1f
%19%00
%19%01
%19%02
%19%03
%19%04
%19%05
%19%06
%19%07
%19%08
%19%09
%19%0a
%19%0b
%19%0c
%19%0d
%19%0e
%19%0f
%19%10
%19%11
%19%12
%19%13
%19%14
%19%15
%19%16
%19%17
%19%18
%19%19
%19%1a
%19%1b
%19%1c
%19%1d
%19%1e
%19%1f
%1a%00
%1a%01
%1a%02
%1a%03
%1a%04
%1a%05
%1a%06
%1a%07
%1a%08
%1a%09
%1a%0a
%1a%0b
%1a%0c
%1a%0d
%1a%0e
%1a%0f
%1a%10
%1a%11
%1a%12
%1a%13
%1a%14
%1a%15
%1a%16
%1a%17
%1a%18
%1a%19
%1a%1a
%1a%1b
%1a%1c
%1a%1d
%1a%1e
%1a%1f
%1b%00
%1b%01
%1b%02
%1b%03
%1b%04
%1b%05
%1b%06
%1b%07
%1b%08
%1b%09
%1b%0a
%1b%0b
%1b%0c
%1b%0d
%1b%0e
%1b%0f
%1b%10
%1b%11
%1b%12
%1b%13
%1b%14
%1b%15
%1b%16
%1b%17
%1b%18
%1b%19
%1b%1a
%1b%1b
%1b%1c
%1b%1d
%1b%1e
%1b%1f
%1c%00
%1c%01
%1c%02
%1c%03
%1c%04
%1c%05
%1c%06
%1c%07
%1c%08
%1c%09
%1c%0a
%1c%0b
%1c%0c
%1c%0d
%1c%0e
%1c%0f
%1c%10
%1c%11
%1c%12
%1c%13
%1c%14
%1c%15
%1c%16
%1c%17
%1c%18
%1c%19
%1c%1a
%1c%1b
%1c%1c
%1c%1d
%1c%1e
%1c%1f
%1d%00
%1d%01
%1d%02
%1d%03
%1d%04
%1d%05
%1d%06
%1d%07
%1d%08
%1d%09
%1d%0a
%1d%0b
%1d%0c
%1d%0d
%1d%0e
%1d%0f
%1d%10
%1d%11
%1d%12
%1d%13
%1d%14
%1d%15
%1d%16
%1d%17
%1d%18
%1d%19
%1d%1a
%1d%1b
%1d%1c
%1d%1d
%1d%1e
%1d%1f
%1e%00
%1e%01
%1e%02
%1e%03
%1e%04
%1e%05
%1e%06
%1e%07
%1e%08
%1e%09
%1e%0a
%1e%0b
%1e%0c
%1e%0d
%1e%0e
%1e%0f
%1e%10
%1e%11
%1e%12
%1e%13
%1e%14
%1e%15
%1e%16
%1e%17
%1e%18
%1e%19
%1e%1a
%1e%1b
%1e%1c
%1e%1d
%1e%1e
%1e%1f
%1f%00
%1f%01
%1f%02
%1f%03
%1f%04
%1f%05
%1f%06
%1f%07
%1f%08
%1f%09
%1f%0a
%1f%0b
%1f%0c
%1f%0d
%1f%0e
%1f%0f
%1f%10
%1f%11
%1f%12
%1f%13
%1f%14
%1f%15
%1f%16
%1f%17
%1f%18
%1f%19
%1f%1a
%1f%1b
%1f%1c
%1f%1d
%1f%1e
%1f%1f
